{
  "req": { "url": "https://reqres.in/api/users", "method": "GET" },
  "res": {
    "status": 200,
    "body": {
      "page": 1,
      "per_page": 6,
      "total": 12,
      "total_pages": 2,
      "data": [
        {
          "id": 1,
          "email": "george.bluth@reqres.in",
          "first_name": "George",
          "last_name": "Bluth",
          "avatar": "https://reqres.in/img/faces/1-image.jpg"
        },
        {
          "id": 2,
          "email": "janet.weaver@reqres.in",
          "first_name": "Janet",
          "last_name": "Weaver",
          "avatar": "https://reqres.in/img/faces/2-image.jpg"
        },
        {
          "id": 3,
          "email": "emma.wong@reqres.in",
          "first_name": "Emma",
          "last_name": "Wong",
          "avatar": "https://reqres.in/img/faces/3-image.jpg"
        },
        {
          "id": 4,
          "email": "eve.holt@reqres.in",
          "first_name": "Eve",
          "last_name": "Holt",
          "avatar": "https://reqres.in/img/faces/4-image.jpg"
        },
        {
          "id": 5,
          "email": "charles.morris@reqres.in",
          "first_name": "Charles",
          "last_name": "Morris",
          "avatar": "https://reqres.in/img/faces/5-image.jpg"
        },
        {
          "id": 6,
          "email": "tracey.ramos@reqres.in",
          "first_name": "Tracey",
          "last_name": "Ramos",
          "avatar": "https://reqres.in/img/faces/6-image.jpg"
        }
      ],
      "support": {
        "url": "https://reqres.in/#support-heading",
        "text": "To keep ReqRes free, contributions towards server costs are appreciated!"
      }
    },
    "headers": {
      "date": "Sun, 01 Sep 2024 13:06:28 GMT",
      "content-type": "application/json; charset=utf-8",
      "content-length": "996",
      "connection": "keep-alive",
      "report-to": "{\"group\":\"heroku-nel\",\"max_age\":3600,\"endpoints\":[{\"url\":\"https://nel.heroku.com/reports?ts=1724680642&sid=c4c9725f-1ab0-44d8-820f-430df2718e11&s=bHGdbUz1svdQKjhQGxzQsajdIDOAeGlF4YIMBeBz8%2FE%3D\"}]}",
      "reporting-endpoints": "heroku-nel=https://nel.heroku.com/reports?ts=1724680642&sid=c4c9725f-1ab0-44d8-820f-430df2718e11&s=bHGdbUz1svdQKjhQGxzQsajdIDOAeGlF4YIMBeBz8%2FE%3D",
      "nel": "{\"report_to\":\"heroku-nel\",\"max_age\":3600,\"success_fraction\":0.005,\"failure_fraction\":0.05,\"response_headers\":[\"Via\"]}",
      "x-powered-by": "Express",
      "access-control-allow-origin": "*",
      "etag": "W/\"3e4-2RLXvr5wTg9YQ6aH95CkYoFNuO8\"",
      "via": "1.1 vegur",
      "cache-control": "max-age=14400",
      "cf-cache-status": "HIT",
      "age": "501",
      "accept-ranges": "bytes",
      "server": "cloudflare",
      "cf-ray": "8bc57a508d8d2e85-HYD"
    }
  }
}
